<svg width="25" height="20" viewBox="0 0 25 20" fill="none" xmlns="http://www.w3.org/2000/svg">
<path d="M24.4457 2.39733C23.6746 2.74718 22.8208 2.95892 21.9876 3.09702C22.3835 3.03027 22.9635 2.31448 23.1959 2.02448C23.5504 1.58257 23.845 1.08083 24.0107 0.537651C24.0314 0.496222 24.0475 0.440984 24.0061 0.411064C23.9531 0.390349 23.9186 0.399556 23.8749 0.422572C22.945 0.919715 21.983 1.28106 20.9611 1.53654C20.8759 1.55726 20.8138 1.53654 20.7608 1.4836C20.6757 1.38694 20.5974 1.29718 20.5054 1.22352C20.075 0.857572 19.6146 0.569873 19.0945 0.358127C18.4109 0.0796349 17.6652 -0.0377461 16.9287 0.0105872C16.2129 0.056619 15.5109 0.259159 14.8757 0.590588C14.2381 0.924318 13.6719 1.38694 13.2185 1.94392C12.7513 2.52162 12.4061 3.20289 12.2289 3.92559C12.0585 4.62297 12.0723 5.31345 12.1759 6.01773C12.192 6.13512 12.1805 6.15123 12.0746 6.13512C8.07218 5.539 4.75559 4.10742 2.06273 1.0394C1.94535 0.905905 1.88321 0.905905 1.78654 1.0486C0.608129 2.81622 1.17893 5.65178 2.65194 7.04654C2.84758 7.23297 3.05011 7.4194 3.26646 7.58742C3.18821 7.60353 2.20774 7.49766 1.33543 7.04654C1.21805 6.97289 1.16051 7.01432 1.149 7.14781C1.13749 7.33885 1.1536 7.51377 1.18122 7.72091C1.40678 9.51155 2.64734 11.1687 4.34591 11.8131C4.54845 11.8983 4.7694 11.9719 4.98805 12.0088C4.60139 12.0939 4.20321 12.1538 3.09384 12.0663C2.95575 12.041 2.90281 12.11 2.95575 12.2412C3.78892 14.5129 5.58877 15.1896 6.9375 15.5762C7.11702 15.6085 7.29885 15.6085 7.48067 15.6499C7.46916 15.666 7.45766 15.666 7.44845 15.6821C7.00194 16.3634 5.45067 16.8697 4.73028 17.1229C3.41837 17.5809 1.98908 17.7881 0.601226 17.6523C0.377972 17.62 0.331935 17.6223 0.272093 17.6523C0.20995 17.6891 0.265188 17.742 0.336537 17.7996C0.617331 17.986 0.905035 18.1494 1.19734 18.3105C2.07885 18.7777 2.99718 19.1506 3.95694 19.4153C8.91917 20.7847 14.5051 19.7789 18.2314 16.078C21.1567 13.1711 22.1809 9.16401 22.1809 5.15004C22.1809 4.99353 22.365 4.90607 22.4755 4.82321C23.2373 4.25242 23.8496 3.56654 24.4181 2.80241C24.5447 2.6298 24.547 2.47789 24.547 2.41575C24.547 2.40424 24.547 2.39503 24.547 2.39503C24.5446 2.33289 24.5423 2.3513 24.4457 2.39733Z" fill="#F3FFAA"/>
</svg>
